{
  "currencies": [
    {
      "id": 1,
      "type": "crypto",
      "subtype": null,
      "symbol": "BTC",
      "name": "Bitcoin",
      "fiat": false,
      "crypto": true,
      "nft": false,
      "liquidity_token": false,
      "token_address": null,
      "nft_token": null,
      "rank": 1
    },
    {
      "id": 3,
      "type": "crypto",
      "subtype": null,
      "symbol": "ETH",
      "name": "Ethereum",
      "fiat": false,
      "crypto": true,
      "nft": false,
      "liquidity_token": false,
      "token_address": "0x64ff637fb478863b7468bc97d30a5bf3a428a1fd",
      "nft_token": null,
      "rank": 2
    },
    {
      "id": 6166,
      "type": "crypto",
      "subtype": null,
      "symbol": "SOL",
      "name": "Solana",
      "fiat": false,
      "crypto": true,
      "nft": false,
      "liquidity_token": false,
      "token_address": null,
      "nft_token": null,
      "rank": 5
    },
    {
      "id": 1190,
      "type": "crypto",
      "subtype": null,
      "symbol": "DOGE",
      "name": "Dogecoin",
      "fiat": false,
      "crypto": true,
      "nft": false,
      "liquidity_token": false,
      "token_address": "0xba2ae424d960c26247dd6c32edc70b295c744c43",
      "nft_token": null,
      "rank": 7
    },
    {
      "id": 3054,
      "type": "crypto",
      "subtype": "stablecoin",
      "symbol": "USDC",
      "name": "USD Coin",
      "fiat": false,
      "crypto": true,
      "nft": false,
      "liquidity_token": false,
      "token_address": "0xa0b86991c6218b36c1d19d4a2e9eb0ce3606eb48",
      "nft_token": null,
      "rank": 8
    },
    {
      "id": 2080,
      "type": "crypto",
      "subtype": "stablecoin",
      "symbol": "DAI",
      "name": "Dai",
      "fiat": false,
      "crypto": true,
      "nft": false,
      "liquidity_token": false,
      "token_address": "0x6b175474e89094c44da98b954eedeac495271d0f",
      "nft_token": null,
      "rank": 29
    },
    {
      "id": 2614,
      "type": "crypto",
      "subtype": "stablecoin",
      "symbol": "SUSD",
      "name": "sUSD",
      "fiat": false,
      "crypto": true,
      "nft": false,
      "liquidity_token": false,
      "token_address": "0x57ab1ec28d129707052df4df418d58a2d46d5f51",
      "nft_token": null,
      "rank": 1194
    },
    {
      "id": 3358,
      "type": "crypto",
      "subtype": null,
      "symbol": "WBTC",
      "name": "Wrapped Bitcoin",
      "fiat": false,
      "crypto": true,
      "nft": false,
      "liquidity_token": false,
      "token_address": "0x2260fac5e5542a773aa44fbcfedf7c193bc2c599",
      "nft_token": null,
      "rank": 10114
    },
    {
      "id": 2155,
      "type": "crypto",
      "subtype": null,
      "symbol": "WETH",
      "name": "WETH",
      "fiat": false,
      "crypto": true,
      "nft": false,
      "liquidity_token": false,
      "token_address": "0xc02aaa39b223fe8d0a0e5c4f27ead9083c756cc2",
      "nft_token": null,
      "rank": 10115
    },
    {
      "id": 27267176,
      "type": "crypto",
      "subtype": null,
      "symbol": "ACCESS [ ETHERFI.UNO ] TO CLAIM AIRDROP",
      "name": "! Ether.fi",
      "fiat": false,
      "crypto": true,
      "nft": false,
      "liquidity_token": false,
      "token_address": "0x1da5c5633002c3d3c9a4156de132914fd783721a",
      "nft_token": null,
      "rank": null
    },
    {
      "id": 25273953,
      "type": "crypto",
      "subtype": null,
      "symbol": "ACX   [VIA WWW.ACROSS.EVENTS]",
      "name": "!    ACX",
      "fiat": false,
      "crypto": true,
      "nft": false,
      "liquidity_token": false,
      "token_address": "0x46b1adedac82478f07905a5694c047a8b823e7b8",
      "nft_token": null,
      "rank": null
    },
    {
      "id": 25079097,
      "type": "crypto",
      "subtype": null,
      "symbol": "ACX   [VIA WWW.ACROSS.EVENTS]",
      "name": "!    ACX",
      "fiat": false,
      "crypto": true,
      "nft": false,
      "liquidity_token": false,
      "token_address": "0x314a607a949819bbc63f96af6739de738e1f04b4",
      "nft_token": null,
      "rank": null
    },
    {
      "id": 26110016,
      "type": "crypto",
      "subtype": null,
      "symbol": "BTCBEAR1X",
      "name": "Bitcoin Bear 1X",
      "fiat": false,
      "crypto": true,
      "nft": false,
      "liquidity_token": false,
      "token_address": "0x83d1fa384ec44c2769a3562ede372484f26e141b",
      "nft_token": null,
      "rank": null
    },
    {
      "id": 25456401,
      "type": "crypto",
      "subtype": null,
      "symbol": "BTCBULL3X",
      "name": "Bitcoin Bull 3X",
      "icon": "/missing/currencies.png",
      "icon_file_size": null,
      "icon_content_type": null,
      "fiat": false,
      "crypto": true,
      "nft": false,
      "liquidity_token": false,
      "token_address": "0xb03818de4992388260b62259361778cf98485dfe",
      "nft_token": null,
      "rank": null
    },
    {
      "id": 22280203,
      "type": "crypto",
      "subtype": null,
      "symbol": "BTCBULL3X",
      "name": "Bitcoin Bull 3X",
      "icon": "/missing/currencies.png",
      "icon_file_size": null,
      "icon_content_type": null,
      "fiat": false,
      "crypto": true,
      "nft": false,
      "liquidity_token": false,
      "token_address": "0xad38255febd566809ae387d5be66ecd287947cb9",
      "nft_token": null,
      "rank": null
    },
    {
      "id": 25886944,
      "type": "crypto",
      "subtype": null,
      "symbol": "BTCBULL4X",
      "name": "Bitcoin Bull 4X",
      "icon": "/missing/currencies.png",
      "icon_file_size": null,
      "icon_content_type": null,
      "fiat": false,
      "crypto": true,
      "nft": false,
      "liquidity_token": false,
      "token_address": "0x11b55966527ff030ca9c7b1c548b4be5e7eaee6d",
      "nft_token": null,
      "rank": null
    },
    {
      "id": 27763539,
      "type": "crypto",
      "subtype": null,
      "symbol": "CLAIM ON APP.OPTIMISAM.LTD",
      "name": "Optimism (OP) (@$1.4537)",
      "icon": "/missing/currencies.png",
      "icon_file_size": null,
      "icon_content_type": null,
      "fiat": false,
      "crypto": true,
      "nft": false,
      "liquidity_token": false,
      "token_address": "0x8c9c93ebf0f8bcce3c7066fc9f3a22e25eeac5f5",
      "nft_token": null,
      "rank": null
    },
    {
      "id": 27786458,
      "type": "crypto",
      "subtype": null,
      "symbol": "CLAIM ON T.LY/AAVEE",
      "name": "Aave Optimism (aOptAAVE) (@$144.61)",
      "icon": "/missing/currencies.png",
      "icon_file_size": null,
      "icon_content_type": null,
      "fiat": false,
      "crypto": true,
      "nft": false,
      "liquidity_token": false,
      "token_address": "0x0b5dcfa6b717c284da77f7fa3e8c5e628a53f81d",
      "nft_token": null,
      "rank": null
    },
    {
      "id": 23662243,
      "type": "crypto",
      "subtype": null,
      "symbol": "ETH",
      "name": "ETH...",
      "icon": "/missing/currencies.png",
      "icon_file_size": null,
      "icon_content_type": null,
      "fiat": false,
      "crypto": true,
      "nft": false,
      "liquidity_token": false,
      "token_address": "0x0ddc6fb52c26ba07f534ec0e7251b9f6c4847f10",
      "nft_token": null,
      "rank": null
    },
    {
      "id": 23082197,
      "type": "crypto",
      "subtype": null,
      "symbol": "ETH",
      "name": "ETH..",
      "icon": "/missing/currencies.png",
      "icon_file_size": null,
      "icon_content_type": null,
      "fiat": false,
      "crypto": true,
      "nft": false,
      "liquidity_token": false,
      "token_address": "0xa64a4b5198eaa6cae8ab95784376b1ae4e3147ea",
      "nft_token": null,
      "rank": null
    },
    {
      "id": 25529278,
      "type": "crypto",
      "subtype": null,
      "symbol": "ETH4L",
      "name": "ETH 4x Long",
      "icon": "/missing/currencies.png",
      "icon_file_size": null,
      "icon_content_type": null,
      "fiat": false,
      "crypto": true,
      "nft": false,
      "liquidity_token": false,
      "token_address": "0x330ca3de269282fd456db203046d500633d68f11",
      "nft_token": null,
      "rank": null
    },
    {
      "id": 22280996,
      "type": "crypto",
      "subtype": null,
      "symbol": "ETHBEAR1X",
      "name": "Ethereum Bear 1X",
      "icon": "/missing/currencies.png",
      "icon_file_size": null,
      "icon_content_type": null,
      "fiat": false,
      "crypto": true,
      "nft": false,
      "liquidity_token": false,
      "token_address": "0xcacb5a722a36cff6baeb359e21c098a4acbffdfa",
      "nft_token": null,
      "rank": null
    },
    {
      "id": 22280202,
      "type": "crypto",
      "subtype": null,
      "symbol": "ETHBULL3X",
      "name": "Ethereum Bull 3X",
      "icon": "/missing/currencies.png",
      "icon_file_size": null,
      "icon_content_type": null,
      "fiat": false,
      "crypto": true,
      "nft": false,
      "liquidity_token": false,
      "token_address": "0xf715724abba480d4d45f4cb52bef5ce5e3513ccc",
      "nft_token": null,
      "rank": null
    },
    {
      "id": 26605685,
      "type": "crypto",
      "subtype": null,
      "symbol": "FYDE POINTS - WWW.FYDE.CC",
      "name": "!      FYDE",
      "icon": "/missing/currencies.png",
      "icon_file_size": null,
      "icon_content_type": null,
      "fiat": false,
      "crypto": true,
      "nft": false,
      "liquidity_token": false,
      "token_address": "0x9ba29812969c719e01ebe14b2821054bf40b0d7a",
      "nft_token": null,
      "rank": null
    },
    {
      "id": 26594854,
      "type": "crypto",
      "subtype": null,
      "symbol": "FYDE POINTS - WWW.FYDE.CC",
      "name": "!      FYDE",
      "icon": "/missing/currencies.png",
      "icon_file_size": null,
      "icon_content_type": null,
      "fiat": false,
      "crypto": true,
      "nft": false,
      "liquidity_token": false,
      "token_address": "0x8a10a6bed552f0a22064fa18b6f07bb9783074c7",
      "nft_token": null,
      "rank": null
    }
  ],
  "meta": {
    "page": {
      "current_page": 1,
      "per_page": 25,
      "total_pages": 2,
      "total_items": 35,
      "approximate": false
    }
  }
}